    'bucket' => 'Bucket',
    'bundle' => 'Bundle',
    'cubic_foot' => 'Cubic Foot',
    'each' => 'Each',
    'foot' => 'Foot',
    'gallon' => 'Gallon',
    'hour' => 'Hour',
    'inch' => 'Inch',
    'labor/square' => 'Labor/Square',
    'linear_foot' => 'Linear Foot',
    'linear_yard' => 'Linear Yard',
    'person' => 'Person',
    'piece' => 'Piece',
    'pound' => 'Pound',
    'sheet' => 'Sheet',
    'square' => 'Square',
    'square_foot' => 'Square Foot',
    'square_yard' => 'Square Yard',
    'ton' => 'Ton',
    'tub' => 'Tub',
    'yard' => 'Yard'